R Notebook: iFood CRM Data Analyst Case
…
# Training with the bootstraps
rf_rs <- ifood_ml_wf %>% 
         add_model(rf_spec) %>% 
         fit_resamples(resamples = ifood_ml_boot,
                       control = control_resamples(save_pred = TRUE, verbose = TRUE))
rf_rs

## # Resampling results
## # Bootstrap sampling 
## # A tibble: 25 x 5
##    splits            id          .metrics       .notes         .predictions     
##    <list>            <chr>       <list>         <list>         <list>           
##  1 <split [1.7K/573~ Bootstrap01 <tibble [2 x ~ <tibble [0 x ~ <tibble [573 x 6~
##  2 <split [1.7K/621~ Bootstrap02 <tibble [2 x ~ <tibble [0 x ~ <tibble [621 x 6~
##  3 <split [1.7K/635~ Bootstrap03 <tibble [2 x ~ <tibble [0 x ~ <tibble [635 x 6~
##  4 <split [1.7K/619~ Bootstrap04 <tibble [2 x ~ <tibble [0 x ~ <tibble [619 x 6~
##  5 <split [1.7K/622~ Bootstrap05 <tibble [2 x ~ <tibble [0 x ~ <tibble [622 x 6~
##  6 <split [1.7K/632~ Bootstrap06 <tibble [2 x ~ <tibble [0 x ~ <tibble [632 x 6~
##  7 <split [1.7K/606~ Bootstrap07 <tibble [2 x ~ <tibble [0 x ~ <tibble [606 x 6~
##  8 <split [1.7K/611~ Bootstrap08 <tibble [2 x ~ <tibble [0 x ~ <tibble [611 x 6~
##  9 <split [1.7K/636~ Bootstrap09 <tibble [2 x ~ <tibble [0 x ~ <tibble [636 x 6~
## 10 <split [1.7K/605~ Bootstrap10 <tibble [2 x ~ <tibble [0 x ~ <tibble [605 x 6~
## # ... with 15 more rows
…
